{
    "@id": "http://schema.org/AcceptAction",
    "name": "AcceptAction",
    "description": "The act of committing to/adopting an object.",
    "title": "AcceptAction",
    "abstract": false,
    "sealed": false,
    "inherits": "AllocateAction",
    "version": "1.0",
    "fields": [

    ],
    "privileges": [
        {
            "mask": 15,
            "type": "global"
        },
        {
            "mask": 15,
            "type": "global",
            "account": "Administrators"
        }
    ]
}