{"name": "Alert", "id": 1013, "title": "Alerts", "hidden": false, "sealed": false, "abstract": false, "version": "1.0", "fields": [
    {
        "name": "id",
        "title": "Id",
        "type": "Counter",
        "nullable": false,
        "primary": true
    },
    {
        "name": "title",
        "title": "Title",
        "description": "The alert title.",
        "type": "Text",
        "size":255
    },
    {
        "name": "body",
        "title": "Message Body",
        "description": "The message body of the alert.",
        "type": "Text",
        "size":1024
    },
    {
        "name": "recipient",
        "title": "Recipient",
        "description": "The message recipient (0 everyone).",
        "type": "Integer",
        "value":"javascript:return 0;"
    },
    {
        "name": "relModel",
        "title": "Relevant model",
        "description": "The relevant model",
        "type": "Text",
        "size":"255"
    },
    {
        "name": "relItem",
        "title": "Relevant Item",
        "description": "The relevant item.",
        "type": "Integer",
        "size":"255"
    },
    {
        "name": "dateCreated",
        "title": "Date created",
        "description": "The date and time when the item was created.",
        "type": "DateTime",
        "value":"javascript:return this.now();",
        "readonly":true
    },
    {
        "name": "dateModified",
        "title": "Ημερομηνία τροποποίησης",
        "description": "Η ημερομηνία τροποποίησης του στοιχείου.",
        "type": "DateTime",
        "value":"javascript:return new Date();",
        "calculation":"javascript:return this.now();",
        "readonly":true
    },
    {
        "name": "createdBy",
        "title": "Created By",
        "description": "Created by user.",
        "type": "Integer",
        "value":"javascript:return this.user();",
        "readonly":true
    },
    {
        "name": "modifiedBy",
        "title": "Modified By",
        "description": "Modified by user.",
        "type": "Integer",
        "calculation":"javascript:return this.user();",
        "readonly":true
    }
],
    "views": [
        {
            "name": "default",
            "title": "Default View",
            "fields":
                [
                    {"name": "title"},
                    {"name": "body"},
                    {"name": "dateCreated", "format":"short"}

                ]
        }
    ]
}