{
  "name": "CourseArea",
  "id": 861962147,
  "title": "Γνωστικά αντικείμενα μαθημάτων ανά τμήμα",
  "hidden": false,
  "sealed": false,
  "version": "2.0",
  "fields": [
    {
      "name": "id",
      "title": "Κωδικός",
      "description": "Ο μοναδικός κωδικός του γνωστικού αντικειμένου",
      "type": "Integer",
      "nullable": false,
      "size": 4,
      "primary": true
    },
    {
      "name": "name",
      "title": "Ονομασία",
      "description": "Η ονομασία του γνωστικού αντικειμένου",
      "type": "Text",
      "nullable": false,
      "size": 255
    },
    {
      "name": "abbreviation",
      "title": "Συντομογραφία",
      "description": "Η συντομογραφία του γνωστικού αντικειμένου",
      "type": "Text",
      "size": 255
    },

    {
      "name": "department",
      "title": "Τμήμα",
      "description": "Κωδικός τμήματος",
      "type": "Department",
      "nullable": false
    }
  ],
  "privileges": [
    {
      "mask": 1,
      "type": "global",
      "account": "*"
    },
    {
      "mask": 15,
      "type": "global"
    }
  ],
  "eventListeners": [
    {
      "name": "Lookup Cache Listener",
      "type": "./listeners/lookup-cache-listener.js"
    }
  ]
}