{
    "@id": "https://themost.io/DocumentConfiguration",
    "name": "DocumentConfiguration",
    "description": "An academic document that may be requested by a user (student or employee).",
    "title": "DocumentConfiguration",
    "abstract": false,
    "sealed": false,
    "implements": "Enumeration",
    "version": "1.0",
    "fields": [
        {
            "@id": "http://schema.org/additionalType",
            "name": "additionalType",
            "type": "Text",
            "readonly": true,
            "nullable": false,
            "value": "javascript:return this.model.name;"
        },
        {
            "@id": "http://schema.org/alternateName",
            "name": "alternateName",
            "type": "Text",
            "nullable": false
        },
        {
            "@id": "http://schema.org/inLanguage",
            "name": "inLanguage",
            "title": "inLanguage",
            "type": "Text"
        }
    ],
    "privileges": [
        {
            "mask": 1,
            "type": "global",
            "account": "*"
        },
        {
            "mask": 15,
            "type": "global"
        },
        {
            "mask": 15,
            "type": "global",
            "account": "Administrators"
        }
    ],
    "constraints": [
        {
            "type": "unique",
            "fields": [
                "alternateName"
            ]
        }
    ]
}