{
  "name": "MilitaryStatus",
  "id": 1021962717,
  "title": "Στρατιωτικές υποχρεώσεις",
  "hidden": false,
  "sealed": false,
  "implements": "Enumeration",
  "category": "lookup",
  "version": "2.0",
  "fields": [
    {
      "name": "id",
      "title": "Id",
      "type": "Counter",
      "nullable": false,
      "primary": true
    }
  ],
  "privileges": [
    {
      "mask": 1,
      "type": "global",
      "account": "*"
    },
    {
      "mask": 15,
      "type": "global"
    }
  ],
  "seed":[
    {
      "alternateName": "postponement",
      "name": "Αναβολή",
      "identifier": 2
    },
    {
      "alternateName": "closed",
      "name": "Εκπληρωμένες",
      "identifier": 2
    },
    {
      "alternateName": "other",
      "name": "Άλλο",
      "identifier": 0
    }
  ]
}