{
    "@id": "http://schema.org/OrganizeAction",
    "name": "OrganizeAction",
    "description": "The act of manipulating/administering/supervising/controlling one or more objects.",
    "title": "OrganizeAction",
    "abstract": false,
    "sealed": false,
    "inherits": "Action",
    "version": "1.0",
    "fields": [],
    "privileges": [
        {
            "mask": 15,
            "type": "global"
        },
        {
            "mask": 15,
            "type": "global",
            "account": "Administrators"
        }
    ]
}