{
  "name": "ProgramCourse",
  "id": 653961406,
  "title": "Μάθημα προγράμματος σπουδών",
  "hidden": false,
  "sealed": false,
  "version": "2.0",
  "fields": [
    {
      "name": "id",
      "title": "Κωδικός",
      "description": "Ο κωδικός του μαθήματος προγράμματος σπουδών",
      "type": "Integer",
      "nullable": false,
      "size": 4
    },
    {
      "name": "program",
      "title": "Πρόγραμμα σπουδών",
      "description": "Πρόγραμμα σπουδών",
      "type": "StudyProgram",
      "nullable": false
    },
    {
      "name": "course",
      "title": "Μάθημα",
      "description": "Μάθημα",
      "type": "Course",
      "nullable": false
    },
    {
      "name": "programGroup",
      "title": "Ομάδα",
      "description": "Η ομάδα που ανήκει το μάθημα στο πρόγραμμα σπουδών.",
      "type": "ProgramGroup",
      "size": 4
    },
    {
      "name": "groupPercent",
      "title": "Ποσοστό συμμετοχής",
      "description": "Το ποσοστό συμμετοχής του βαθμού του συγκεκριμένου μαθήματος στην ομάδα",
      "type": "Number",
      "size": 4
    },
    {
      "name": "specialty",
      "title": "Κατεύθυνση",
      "description": "Η κατεύθυνση του προγράμματος σπουδών",
      "type": "Integer",
      "nullable": false
    },
    {
      "name": "semester",
      "title": "Εξάμηνο",
      "description": "Εξάμηνο",
      "type": "Semester",
      "expandable": true,
      "nullable": false
    },
    {
      "name": "coefficient",
      "title": "Συντελεστής πτυχίου",
      "description": "Συντελεστής πτυχίου",
      "type": "Number",
      "nullable": false
    },
    {
      "name": "courseType",
      "title": "Τύπος μαθήματος",
      "description": "Τύπος μαθήματος",
      "type": "CourseType",
      "nullable": false,
      "expandable": true
    },
    {
      "name": "units",
      "title": "Διδακτικές μονάδες",
      "description": "Διδακτικές μονάδες",
      "type": "Number",
      "nullable": true,
      "size": 8
    },
    {
      "name": "ects",
      "title": "Μονάδες ECTS",
      "description": "Μονάδες ECTS",
      "type": "Number",
      "nullable": true,
      "size": 4
    },
    {
      "name": "dateModified",
      "title": "Ημερομηνία τελευταίας τροποποίησης",
      "description": "Ημερομηνία τελευταίας τροποποίησης",
      "type": "DateTime",
      "nullable": false,
      "size": 8
    }
  ],
  "privileges": [
    {
      "mask": 1,
      "type": "global",
      "account": "*"
    },
    {
      "mask": 15,
      "type": "global"
    }
  ],
  "views": [
    {
      "name": "CourseAttributes",
      "fields": [
        {
          "name": "semester"
        },
        {
          "name": "units"
        },
        {
          "name": "coefficient"
        },
        {
          "name": "ects"
        },
        {
          "name": "courseType"
        }
      ]
    }
  ]
}