{
    "@id": "https://themost.io/schemas/RequestAction",
    "name": "RequestAction",
    "description": "The act of requesting something",
    "title": "RequestAction",
    "abstract": false,
    "sealed": false,
    "inherits": "InteractAction",
    "version": "1.1",
    "fields": [
        {
            "@id": "http://schema.org/additionalType",
            "name": "additionalType",
            "readonly": true,
            "nullable": false,
            "value": "javascript:return this.model.name;"
        },
        {
            "@id": "http://schema.org/actionStatus",
            "name": "actionStatus",
            "title": "actionStatus",
            "description": "Indicates the current disposition of the Action.",
            "type": "ActionStatusType",
            "value": "javascript:return { alternateName:'ActiveActionStatus' };"
        }
    ],
    "privileges": [
        {
            "mask": 15,
            "type": "global"
        },
        {
            "mask": 15,
            "type": "global",
            "account": "Administrators"
        },
        {
            "mask": 1,
            "type": "self",
            "filter": "owner eq me()"
        }
    ]
}
