{
    "name": "StudentPeriodRegistration",
    "id": 637961349,
    "title": "Εγγραφή φοιτητή σε συγκεκριμένο έτος και ακαδημαϊκή περίοδο",
    "hidden": false,
    "sealed": false,
    "version": "2.1",
    "classPath": "./models/student-period-registration-model",
    "fields": [
        {
            "name": "id",
            "title": "Κωδικός",
            "description": "Μοναδικός κωδικός εγγραφής",
            "type": "Integer",
            "nullable": false,
            "size": 4,
            "primary": true,
            "value": "javascript:return this.newid();",
            "readonly": true
        },
        {
            "name": "student",
            "title": "Φοιτητής",
            "description": "Φοιτητής",
            "type": "Student",
            "nullable": false,
            "value": "javascript:return this.student();"
        },
        {
            "name": "registrationYear",
            "title": "Ακαδημαϊκό έτος",
            "description": "Ακαδημαϊκό έτος εγγραφής",
            "type": "AcademicYear",
            "expandable": true,
            "nullable": false,
            "value": "javascript:return this.currentYear();"
        },
        {
            "name": "registrationPeriod",
            "title": "Ακαδημαϊκή περίοδος",
            "description": "Ακαδημαϊκή περίοδος εγγραφής",
            "type": "AcademicPeriod",
            "expandable": true,
            "nullable": false,
            "value": "javascript:return this.currentPeriod();"
        },
        {
            "name": "registrationDate",
            "title": "Ημερομηνία εγγραφής",
            "description": "Ημερομηνία εγγραφής",
            "type": "DateTime",
            "nullable": true,
            "value": "javascript:return this.now();",
            "readonly": true
        },
        {
            "name": "registrationModifiedDate",
            "title": "Ημερομηνία τροποποίησης δήλωσης",
            "description": "Ημερομηνία τροποποίησης",
            "type": "DateTime",
            "nullable": false,
            "calculation": "javascript:return this.now();"
        },
        {
            "name": "registrationType",
            "title": "Τύπος εγγραφής περιόδου",
            "description": "Τύπος εγγραφής περιόδου",
            "type": "PeriodRegistrationType",
            "value": "javascript:return 1;",
            "mapping": {
                "parentModel": "PeriodRegistrationType",
                "childModel": "StudentPeriodRegistration",
                "parentField": "identifier",
                "childField": "registrationType",
                "associationType": "association"
            }
        },
        {
            "name": "status",
            "title": "Κατάστασης",
            "description": "Η κατάσταση της εγγραφής",
            "type": "PeriodRegistrationStatus",
            "nullable": false,
            "expandable":true,
            "mapping": {
                "parentModel": "PeriodRegistrationStatus",
                "childModel": "StudentPeriodRegistration",
                "parentField": "identifier",
                "childField": "status",
                "associationType": "association"
            },
            "value": "javascript:return 3;"
        },
        {
            "name": "semester",
            "title": "Εξάμηνο",
            "description": "Το εξάμηνο του φοιτητή",
            "type": "Integer",
            "nullable": false
        },
        {
            "name": "notes",
            "title": "Σημειώσεις",
            "description": "Σημειώσεις",
            "type": "Text",
            "nullable": true,
            "size": 100
        },
        {
            "name": "dateModified",
            "title": "Ημερομηνία τελευταίας τροποποίησης",
            "description": "Ημερομηνία τελευταίας τροποποίησης",
            "type": "DateTime",
            "nullable": false,
            "size": 8,
            "calculation": "javascript:return this.now();",
            "readonly": true
        },
        {
            "name": "classes",
            "title": "Μαθήματα",
            "description": "Το σύνολο των μαθημάτων που δηλώθηκαν",
            "type": "StudentCourseClass",
            "many": true,
            "mapping": {
                "parentModel": "StudentPeriodRegistration",
                "childModel": "StudentCourseClass",
                "parentField": "id",
                "childField": "registration",
                "cascade": "null",
                "associationType": "association"
            }
        },
        {
            "name": "documents",
            "title": "Αποστολή δήλωσης",
            "description": "Το σύνολο των αποστολών μιας δήλωσης",
            "type": "StudentRegistrationDocument",
            "many": true,
            "mapping": {
                "parentModel": "StudentPeriodRegistration",
                "childModel": "StudentRegistrationDocument",
                "parentField": "id",
                "childField": "registration",
                "cascade": "null",
                "associationType": "association"
            }
        }
    ],
    "constraints": [
        {
            "type": "unique",
            "description": "A student registration must be unique for an academic period.",
            "fields": [
                "student",
                "registrationYear",
                "registrationPeriod"
            ]
        }
    ],
    "views": [
        {
            "name": "my",
            "filter": "student eq student()"
        },
        {
            "name": "current",
            "filter": "student eq student() and registrationYear eq currentYear() and registrationPeriod eq currentPeriod()"
        }
    ],
    "privileges": [
        {
            "mask": 15,
            "type": "global"
        },
        {
            "mask": 1,
            "type": "self",
            "filter": "student eq student()"
        },
        {
            "mask": 1,
            "type": "global",
            "account": "Administrators"
        }
    ],
    "eventListeners": [
        {
            "type": "./listeners/student-registration-classes-listener",
            "name": "Student Registration Classes Listener"
        },
        {
            "type": "./listeners/student-registration-custom-listener",
            "name": "Student Registration Custom Listener"
        },
        {
            "type": "./listeners/student-registration-semester-listener",
            "name": "Student Registration semester Listener"
        }
    ]
}