{
    "name": "StudentGrade",
    "id": 701961577,
    "title": "StudentGrades",
    "hidden": false,
    "sealed": true,
    "version": "2.0",
    "fields": [
        {
            "name": "id",
            "title": "Id",
            "description": "Id",
            "type": "Text",
            "nullable": false,
            "size": 57,
            "primary": true
        },
        {
            "name": "courseExam",
            "title": "Course Exam",
            "description": "Course Exam",
            "type": "CourseExam",
            "nullable": false
        },
        {
            "name": "student",
            "title": "Student",
            "description": "Student",
            "type": "Student",
            "nullable": false
        },
        {
            "name": "courseClass",
            "title": "Course Class",
            "description": "Class",
            "type": "CourseClass",
            "nullable": false
        },
        {
            "name": "grade1",
            "title": "grade1",
            "description": "grade1",
            "type": "Number",
            "nullable": true
        },
        {
            "name": "status",
            "title": "Status",
            "description": "Status",
            "type": "Integer",
            "nullable": false,
            "value":"javascript:return 0;"
        },
        {
            "name": "grade2",
            "title": "grade2",
            "description": "grade2",
            "type": "Number"
        },
        {
            "name": "gradeModified",
            "title": "gradeModified",
            "description": "gradeModified",
            "type": "DateTime",
            "value": "javascript:return new Date();",
            "calculation": "javascript:return this.now();"
        },
        {
            "name": "examGrade",
            "title": "examGrade",
            "description": "examGrade",
            "type": "Number"
        },
        {
            "name": "percentileRank",
            "title": "percentileRank",
            "description": "percentileRank",
            "type": "Number"
        },
        {
            "name": "dateModified",
            "title": "dateModified",
            "description": "dateModified",
            "type": "DateTime",
            "nullable": false,
            "value": "javascript:return new Date();",
            "calculation": "javascript:return this.now();"
        },
        {
            "name": "formattedGrade",
            "title": "Βαθμός (στην κλίμακα)",
            "description": "Βαθμός (στην κλίμακα)",
            "type": "Text",
            "readonly": true
        },
        {
            "name": "course",
            "title": "Course",
            "description": "Course",
            "type": "Course",
            "readonly": true
        },
        {
            "name": "isPassed",
            "title": "Passed course",
            "description": "Το μάθημα έχει περαστεί",
            "type": "Number",
            "readonly": true
        }
    ],
    "views": [
        {
            "name": "my",
            "filter": "student eq student()"
        }
    ],
    "privileges": [
        {
            "mask": 1,
            "type": "global",
            "account": "Administrators"
        },
        {
            "mask": 15,
            "type": "global"
        },
        {
            "mask": 1,
            "type": "self",
            "filter": "student eq student()",
            "account": "Students"
        },
        {
            "mask": 1,
            "type": "self",
            "filter": "courseExam/instructors/instructor eq instructor()",
            "account": "Instructors"
        }
    ],
    "constraints": [
        {
            "type": "unique",
            "description": "A student grade must be unique for a course exam period.",
            "fields": [
                "student",
                "courseExam"
            ]
        }
    ]
}