{ "name": "StudentAvailableClass", "id": 2187796, "title": "Student Available Classes", "hidden": false, "caching":"always", "sealed":true,"version": "0.1", "source": "StudentAvailableClasses", "view": "StudentAvailableClasses", "fields": [
    {
        "name": "id",
        "title": "Id",
        "description": "Id",
        "type": "Text",
        "nullable": false,
        "size": 22,
        "primary":true,
        "readonly":true
    },
    {
        "name": "courseClass",
        "title": "Course Class",
        "description": "Course Class",
        "type": "CourseClass",
        "nullable": false
    },
    {
        "name": "programCourse",
        "title": "Program course code",
        "description": "Program course code",
        "type": "Integer",
        "nullable": true,
        "size": 4
    },
    {
        "name": "student",
        "title": "Student",
        "description": "Student",
        "type": "Student",
        "nullable": false,
        "size": 4
    },
    {
        "name": "registrationType",
        "title": "Registration Type",
        "description": "egistration Type",
        "type": "RegistrationType",
        "nullable": true,
        "size": 4
    },
    {
        "name": "section",
        "title": "Class Section",
        "description": "Class Section",
        "type": "Integer",
        "nullable": true,
        "size": 4
    },
    {
        "name": "status",
        "title": "Status",
        "description": "Status",
        "type": "Integer",
        "nullable": true,
        "size": 4
    },
    {
        "name": "units",
        "title": "units",
        "description": "units",
        "type": "Number",
        "nullable": true,
        "size": 4
    },
    {
        "name": "coefficient",
        "title": "Class Coefficient",
        "description": "Class Coefficient",
        "type": "Number",
        "nullable": true,
        "size": 4
    },
    {
        "name": "hours",
        "title": "Class Hours",
        "description": "Class Hours",
        "type": "Text",
        "nullable": true,
        "size": 2
    },
    {
        "name": "semester",
        "title": "Semester",
        "description": "Semester",
        "type": "Semester",
        "nullable": true,
        "expandable":true
    },
    {
        "name": "courseType",
        "title": "Course Type",
        "description": "Course Type",
        "type": "CourseType",
        "nullable": false,
        "expandable":true
    },
    {
        "name": "ects",
        "title": "ects",
        "description": "ects",
        "type": "Number",
        "nullable": true,
        "size": 4
    },
    {
        "name": "displayCode",
        "title": "Κωδικός εμφάνισης μαθήματος",
        "description": "Κωδικός εμφάνισης μαθήματος",
        "type": "Text",
        "nullable": true,
        "size": 15
    },
    {
        "name": "name",
        "title": "Τίτλος τάξης (μπορεί να διαφέρει ανά έτος)",
        "description": "Τίτλος τάξης (μπορεί να διαφέρει ανά έτος)",
        "type": "Text",
        "nullable": true,
        "size": 150
    },
    {
        "name": "programGroup",
        "title": "Ομάδα προγράμματος σπουδών",
        "description": "Ομάδα προγράμματος σπουδών",
        "type": "ProgramGroup",
        "expandable":true
    },
    {
        "name": "registered",
        "title": "Registered",
        "description": "Indicates whether this class was registered in the past or belong to program or specialty courses.",
        "type": "Integer",
        "size": 2
    },
    {
        "name": "specialty",
        "title": "Specialty",
        "description": "Represents the specialty index associated with this class.",
        "type": "StudyProgramSpecialty",
        "expandable":true
    },
    {
        "name": "parentCourse",
        "title": "Πατρικό μάθημα",
        "description": "Πατρικό μάθημα",
        "type": "Course"
    },
    {
        "name": "course",
        "title": "Μάθημα",
        "description": "Μάθημα",
        "type": "Course"
    },
    {
        "name": "courseArea",
        "title": "Course area",
        "description": "Course area.",
        "type": "CourseArea"
    },
    {
        "name": "calculatedInRegistration",
        "title": "Υπολογίζεται",
        "description": "Υπολογίζεται στους κανόνες δήλωσης.",
        "type": "Integer"
    },
    {
        "name": "mustRegisterSection",
        "title": "Υποχρεωτική επιλογή τμήματος τάξης",
        "description": "Υποχρεωτική επιλογή τμήματος τάξης",
        "type": "Integer"
    }

],"constraints": [

], "privileges":[

], "views": [

], "eventListeners": [

]}