{
    "name": "StudentCourseClass",
    "id": 749961748,
    "title": "Student Classes",
    "hidden": false,
    "sealed": true,
    "version": "2.0",
    "classPath": "./models/student-class-model",
    "fields": [
        {
            "name": "id",
            "title": "Κωδικός",
            "description": "Ο μοναδικός κωδικός της εγγραφής.",
            "type": "Text",
            "nullable": false,
            "size": 36,
            "primary": true,
            "readonly": true,
            "value": "javascript:return this.newGuid();"
        },
        {
            "name": "registration",
            "title": "Εγγραφή φοιτητή",
            "description": "Η εγγραφή του φοιτητή σε συγκεκριμένο έτος και περίοδο.",
            "type": "StudentPeriodRegistration",
            "nullable": false
        },
        {
            "name": "courseClass",
            "title": "Τάξη",
            "description": "Η τάξη του μαθήματος",
            "type": "CourseClass",
            "nullable": false
        },
        {
            "name": "student",
            "title": "Φοιτητής",
            "description": "Φοιτητής",
            "type": "Student",
            "nullable": false,
            "size": 4
        },
        {
            "name": "finalGrade",
            "title": "Τελικός βαθμός",
            "description": "Ο τελικός βαθμός της δήλωσης του μαθήματος",
            "type": "Number",
            "nullable": true
        },
        {
            "name": "registrationType",
            "title": "Τύπος",
            "description": "Τύπος δήλωσης",
            "type": "RegistrationType",
            "nullable": true,
            "size": 4,
            "value": "javascript:return 1;"
        },
        {
            "name": "absences",
            "title": "Απουσίες",
            "description": "Αριθμός απουσιών του φοιτητή στο μάθημα για το έτος και την περίοδο.",
            "type": "Integer",
            "nullable": true,
            "size": 4
        },
        {
            "name": "examPeriod",
            "title": "Εξεταστική",
            "description": "Η τελευταία εξεταστική περίοδος που βαθμολογήθηκε ο φοιτητής για την τάξη.",
            "type": "ExamPeriod",
            "nullable": true,
            "size": 2
        },
        {
            "name": "autoRegistered",
            "title": "Αυτόματη",
            "description": "Αν η δήλωση της τάξης έγινε με αυτόματη διαδικασία.",
            "type": "Integer",
            "nullable": true,
            "size": 2,
            "value": "javascript:return 1;"
        },
        {
            "name": "examGrade",
            "title": "Βαθμός εξέτασης",
            "description": "Ο βαθμός της τελευταίας εξέτασης της τάξης.",
            "type": "Number",
            "nullable": true,
            "size": 4
        },
        {
            "name": "section",
            "title": "Τμήμα",
            "description": "Τμήμα τάξης",
            "type": "Integer",
            "nullable": true,
            "size": 4
        },
        {
            "name": "status",
            "title": "Κατάσταση",
            "description": "Η κατάσταση της δήλωσης της τάξης.",
            "type": "Integer",
            "nullable": true,
            "size": 4
        },
        {
            "name": "units",
            "title": "Διδακτικές μονάδες",
            "description": "Διδακτικές μονάδες",
            "type": "Number",
            "nullable": true,
            "size": 4
        },
        {
            "name": "coefficient",
            "title": "Συντελεστής πτυχίου",
            "description": "Ο συντελεστής πτυχίου",
            "type": "Number",
            "nullable": true,
            "size": 4
        },
        {
            "name": "hours",
            "title": "Ώρες διδασκαλίας",
            "description": "Ώρες διδασκαλίας",
            "type": "Text",
            "nullable": true,
            "size": 2
        },
        {
            "name": "semester",
            "title": "Εξάμηνο",
            "description": "Το εξάμηνο χρέωσης του μαθήματος στο φοιτητή.",
            "type": "Semester",
            "nullable": false,
            "expandable": true

        },
        {
            "name": "courseType",
            "title": "Τύπος μαθήματος",
            "description": "Ο τύπος του μαθήματος στο φοιτητή.",
            "type": "CourseType",
            "nullable": false,
            "expandable": true
        },
        {
            "name": "ects",
            "title": "ects",
            "description": "Μονάδες ECTS",
            "type": "Number",
            "nullable": true,
            "size": 4
        },
        {
            "name": "percentileRank",
            "title": "percentileRank",
            "description": "percentileRank",
            "type": "Number",
            "nullable": true,
            "size": 4
        },
        {
            "name": "dateModified",
            "title": "Ημερομηνία τροποποίησης",
            "description": "Ημερομηνία τροποποίησης",
            "type": "DateTime",
            "nullable": false,
            "size": 8,
            "value": "javascript:return this.now();"
        },
        {
            "name": "course",
            "title": "Μάθημα",
            "description": "Μάθημα",
            "type": "Course",
            "nullable": false,
            "readonly": true
        },
        {
            "name": "isPassed",
            "title": "Passed course",
            "description": "Το μάθημα έχει περαστεί",
            "type": "Number",
            "readonly": true
        },
        {
            "name": "formattedGrade",
            "title": "Βαθμός (στην κλίμακα)",
            "description": "Βαθμός (στην κλίμακα)",
            "type": "Text",
            "readonly": true
        },
        {
            "name": "sectionName",
            "title": "Τμήμα τάξης (ονομασία)",
            "description": "Τμήμα τάξης (ονομασία)",
            "type": "Text",
            "readonly": true
        }
    ],
    "constraints": [
        {
            "type": "unique",
            "description": "A student class registration must be unique for an academic period.",
            "fields": [
                "student",
                "courseClass"
            ]
        },
        {
            "type": "primary",
            "fields": [
                "registration",
                "courseClass"
            ]
        }
    ],
    "privileges": [
        {
            "mask": 1,
            "type": "global",
            "account": "Administrators"
        },
        {
            "mask": 15,
            "type": "global"
        },
        {
            "mask": 1,
            "type": "self",
            "filter": "student eq student()",
            "account": "Students"
        },
        {
            "mask": 1,
            "type": "self",
            "filter": "courseClass/instructors/instructor eq instructor()",
            "account": "Instructors"
        }
    ],
    "views": [
        {
            "name": "RegistrationRequest",
            "description": "This view contains the fields that is going to used for extending student available classes data.",
            "fields": [
                {
                    "name": "courseClass"
                },
                {
                    "name": "section"
                }
            ]
        },
        {
            "name": "TeacherClassStudents",
            "description": "This view contains the fields that is going to used for exporting class students.",
            "fields": [
                {
                    "name": "student",
                    "expandable": "false"
                },
                {
                    "name": "student/studentIdentifier",
                    "property": "studentIdentifier"
                },
                {
                    "name": "student/familyName",
                    "property": "familyName",
                    "title": "Επώνυμο"
                },
                {
                    "name": "student/givenName",
                    "property": "givenName"
                },
                {
                    "name": "student/fatherName",
                    "property": "fatherName"
                },
                {
                    "name": "student/studentStatus/name",
                    "property": "studentStatus"
                },
                {
                    "name": "student/inscriptionYear",
                    "property": "inscriptionYear"
                },
                {
                    "name": "registrationSemester",
                    "property": "registrationSemester"
                },
                {
                    "name": "formattedGrade"
                },
                {
                    "name": "sectionName"
                }
            ]
        },
        {
            "name": "TeacherClassStudentsView",
            "description": "This view contains the fields that is going to used for exporting class students.",
            "fields": [
                {
                    "name": "student",
                    "expandable": "false"
                },
                {
                    "name": "student/studentIdentifier",
                    "property": "studentIdentifier"
                },
                {
                    "name": "student/familyName",
                    "property": "familyName"
                },
                {
                    "name": "student/givenName",
                    "property": "givenName"
                },
                {
                    "name": "student/fatherName",
                    "property": "fatherName"
                },
                {
                    "name": "student/studentStatus",
                    "property": "studentStatus"
                },
                {
                    "name": "student/studentStatus/name",
                    "property": "studentStatusName"
                },
                {
                    "name": "student/department",
                    "property": "department"
                },
                {
                    "name": "student/department/name",
                    "property": "departmentName"
                },
                {
                    "name": "student/inscriptionYear",
                    "property": "inscriptionYear"
                },
                {
                    "name": "registrationSemester",
                    "property": "registrationSemester"
                },
                {
                    "name": "formattedGrade"
                },
                {
                    "name": "section"
                },
                {
                    "name": "sectionName"
                }
            ]
        }
    ],
    "eventListeners": [
        {
            "type": "./listeners/student-class-listener",
            "name": "Student class listener"
        },
        {
            "type": "./listeners/student-course-grade-validator",
            "name": "Student course grade validator"
        }
    ]
}