{ "name": "StudyLevel", "id": 8111761,
    "title": "Επίπεδο σπουδών",
    "hidden": false,
    "sealed": false,
    "abstract": false,
    "caching":"always",
    "implements":"Enumeration",
    "category":"lookup",
    "version": "1.0",

    "fields": [
        {
            "name": "id",
            "title": "Id",
            "type": "Counter",
            "nullable": false,
            "primary": true
        }
],
    "privileges":[
        { "mask":1, "type":"global", "account":"*" },
        { "mask":15, "type":"global" }
    ],
    "constraints": [
        {
            "type": "unique",
            "description": "Alternate name must be unique across different records",
            "fields": [ "alternateName" ]
        },
        {
            "type": "unique",
            "description": "Name must be unique across different records",
            "fields": [ "name" ]
        }
    ],
    "seed":[
        {

            "alternateName": "undergraduate",
            "name": "Προπτυχιακό",
            "identifier": 1
        },
        {

            "alternateName": "postgraduate",
            "name": "Μεταπτυχιακό",
            "identifier": 2
        },
        {

            "alternateName": "specialprogram",
            "name": "Άλλο",
            "identifier": 3
        },
        {

            "alternateName": "doctoral",
            "name": "Διδακτορικό",
            "identifier": 4
        },
        {

            "alternateName": "postdoctoral",
            "name": "Μεταδιδακτορικό",
            "identifier": 5
        }

    ],
    "eventListeners":[
        { "name":"Lookup Cache Listener", "type":"./listeners/lookup-cache-listener.js" }
    ]
}
