{
  "name": "StudentRegistrationDocument",
  "id": 4280426,
  "title": "Έγγραφο αποστολής δήλωσης",
  "hidden": false,
  "sealed": false,
  "version": "2.0",
  "fields": [
    {
      "name": "id",
      "title": "Κωδικός",
      "description": "Ο μοναδικός κωδικός της εγγραφής.",
      "type": "Integer",
      "nullable": false,
      "primary":true
    },
    {
      "name": "registration",
      "title": "Student Registration",
      "description": "Student Registration",
      "type": "StudentPeriodRegistration",
      "nullable": false
    },
    {
      "name": "user",
      "title": "Χρήστης",
      "description": "Ο συνδεδεμένος χρήστης",
      "type": "User"
    },
  {
      "name": "documentSubject",
      "title": "Θέμα",
      "description": "Περιγραφή του document",
      "type": "Text"
  },
  {
      "name": "originalDocument",
      "title": "Xml document",
      "description": "Xml document",
      "type": "Text"
  },
  {
      "name": "documentResults",
      "title": "Document results",
      "description": "The document results",
      "type": "Text"
  },
  {
      "name": "documentStatus",
      "title": "Document status",
      "description": "Document status",
      "type": "DocumentStatus",
      "expandable":true
  },
  {
      "name": "documentStatusReason",
      "title": "Document status reason",
      "description": "Document status reason",
      "type": "Text"
  },
  {
      "name": "checkHashKey",
      "title": "Document checksum key",
      "description": "Document checksum key",
      "type": "Text"
    },
   {
  "name": "dateCreated",
  "title": "Created date",
  "description": "Created date",
   "type": "DateTime"
},
  {
      "name": "dateModified",
      "title": "dateModified",
      "description": "dateModified",
      "type": "DateTime",
      "nullable": false,
      "size": 8
  }

  ],
  "views": [
    {
      "name":"current", "filter":"registration/registrationYear eq currentYear() and registration/registrationPeriod eq currentPeriod()"
    }
  ],
    "privileges":[
    { "mask":5, "type":"self", "filter":"user eq me()" }

]
}