{
  "name": "StudentScholarship",
  "title": "Υποτροφία φοιτητή",
  "hidden": false,
  "sealed": false,
  "version": "2.1",
  "fields": [
    {
      "name": "id",
      "title": "Κωδικός",
      "description": "Ο μοναδικός κωδικός του αντικειμένου",
      "type": "Text",
      "nullable": false,
      "size": 36,
      "primary": true
    },
    {
      "name": "scholarship",
      "title": "Υποτροφία",
      "description": "Υποτροφία",
      "type": "Scholarship",
      "nullable": false
    },
    {
      "name": "student",
      "title": "Φοιτητής",
      "description": "Φοιτητής",
      "type": "Student",
      "nullable": false
    },
    {
      "name": "dateCompleted",
      "title": "Ημερομηνία ολοκλήρωσης",
      "description": "Ημερομηνία ολοκλήρωσης",
      "type": "DateTime",
      "nullable": true
    },
    {
      "name": "notes",
      "title": "Σημειώσεις",
      "description": "Σημειώσεις",
      "type": "Text",
      "size": 255
    },
    {
      "name": "dateModified",
      "title": "Ημερομηνία τροποποίησης",
      "description": "Ημερομηνία τροποποίησης",
      "type": "DateTime",
      "nullable": false,
      "size": 8
    }
  ],
  "privileges": [
    {
      "mask": 1,
      "type": "global",
      "account": "Administrators"
    },
    {
      "mask": 1,
      "type": "self",
      "filter": "student eq student()"
    },
    {
      "mask": 15,
      "type": "global"
    }
  ]
}