{
    "name": "TeacherActivation", "id": 8752154, "title": "Teacher Activation Data",  "hidden": true, "sealed": true, "abstract": false, "version": "1.1",
    "fields": [
        {
            "name": "id",
            "title": "Μοναδικός κωδικός εγγραφής",
            "description": "Μοναδικός κωδικός εγγραφής",
            "type": "Integer",
            "nullable": false,
            "size": 4,
            "primary":true,
            "value":"javascript:return this.newid();",
            "readonly":true
        },
        {
            "name": "name",
            "title": "Name",
            "description": "The name of the item.",
            "type": "Text",
            "nullable": false
        },
        {
            "name": "email",
            "title": "Email Address",
            "description": "The email address of the item",
            "type": "Text",
            "size": 50
        },
        {
            "name": "externalAuthentication",
            "title": "External Authentication",
            "description": "External authentication flag.",
            "type": "Integer",
            "value": "javascript:return -1;"
        },
        {
            "name": "authenticationProvider",
            "title": "Authentication Provider URL",
            "description": "Authentication Provider URL",
            "type": "Text",
            "size": 160
        },
        {
            "name": "activationCode",
            "title": "Activation Code",
            "description": "Activation Code",
            "type": "Text",
            "size": 120
        },
        {
            "name": "useActivationCode",
            "title": "Use Activation Code",
            "description": "Use Activation Code",
            "type": "Integer"
        },
        {
            "name": "providerType",
            "title": "Provider Type",
            "description": "Provider Type",
            "type": "Integer",
            "value": "javascript:return 1;"
        },
        {
            "name": "uniqueIdentifier",
            "title": "User Unique Identifier",
            "description": "User Unique Identifier",
            "type": "Text",
            "size": 255,
            "readonly":true
        },
        {
            "name": "password",
            "title": "password",
            "description": "password",
            "type": "Text",
            "size": 255

        },
        {
            "name": "fullname",
            "title": "fullname",
            "description": "fullname",
            "type": "Text",
            "size": 255
        },
        {
            "name": "enabled",
            "title": "Enabled",
            "description": "Indicates whether a user is enabled or not.",
            "type": "Number",
            "nullable": false,
            "value": "javascript:return -1;"
        },
        {
            "name": "dateCreated",
            "title": "Date created",
            "description": "The date and time when the item was created.",
            "type": "DateTime",
            "value":"javascript:return this.now();",
            "readonly":true
        },
        {
            "name": "departments",
            "title": "User departments",
            "description": "A collection of department where user belongs.",
            "type": "Department",
            "mapping": {
                "associationAdapter":"UserDepartment",
                "parentModel":"Department",
                "parentField":"id",
                "childModel":"TeacherActivation",
                "childField":"id",
                "associationType":"junction"
            }
        }

    ],"constraints": [
    {
        "type": "unique",
        "description": "User name must be unique for a specific user account.",
        "fields": [ "name" ]
    }
],
    "privileges":[
        { "mask":15, "type":"global" }
    ],
    "eventListeners": [
    { "type":"./listeners/teacher-activation-listener", "name":"Teacher activation listener" }
]
}
