{
  "name": "Thesis",
  "id": 813961976,
  "title": "Εργασίες",
  "hidden": false,
  "sealed": false,
  "version": "2.0",
  "fields": [
    {
      "name": "id",
      "title": "Κωδικός",
      "description": "Ο μοναδικός κωδικός της εργασίας",
      "type": "Integer",
      "nullable": false,
      "size": 4,
      "primary": true
    },
    {
      "name": "department",
      "title": "Τμήμα",
      "description": "Το τμήμα που προσφέρει την εργασία",
      "type": "Department",
      "nullable": false
    },
    {
      "name": "name",
      "title": "Ονομασία",
      "description": "Η ονομασία της εργασίας",
      "type": "Text",
      "nullable": true,
      "size": 1024
    },
    {
      "name": "startDate",
      "title": "Ημερομηνία έναρξης",
      "description": "Η ημερομηνία έναρξης της εργασίας",
      "type": "DateTime",
      "nullable": true,
      "size": 4
    },
    {
      "name": "startYear",
      "title": "Ακαδημαϊκό έτος έναρξης",
      "description": "Το ακαδημαϊκό έτος έναρξης της εργασίας",
      "type": "AcademicYear",
      "expandable": true
    },
    {
      "name": "startPeriod",
      "title": "Ακαδημαϊκή περίοδος έναρξης",
      "description": "Η ακαδημαϊκή περίοδος έναρξης της εργασίας",
      "type": "AcademicPeriod",
      "expandable": true,
      "nullable": true
    },
    {
      "name": "endDate",
      "title": "Ημερομηνία παράδοσης",
      "description": "Η ημερομηνία παράδοσης της εργασίας",
      "type": "DateTime",
      "nullable": true
    },
    {
      "name": "instructor",
      "title": "Υπεύθυνος",
      "description": "Ο επιστημονικός υπεύθυνος της εργασίας.",
      "type": "Instructor",
      "nullable": true
    },
    {
      "name": "coefficient",
      "title": "Συντελεστής πτυχίου",
      "description": "Ο συντελεστής που συμμετέχει ο βαθμός της εργασίας στο βαθμό πτυχίου.",
      "type": "Number",
      "nullable": true,
      "size": 8
    },
    {
      "name": "notes",
      "title": "Σημειώσεις",
      "description": "Σημειώσεις",
      "type": "Text",
      "nullable": true,
      "size": 1024
    },
    {
      "name": "subject",
      "title": "Θέμα",
      "description": "Το θέμα της εργασίας",
      "type": "Integer",
      "nullable": true,
      "size": 4
    },
    {
      "name": "otherInstructors",
      "title": "Άλλοι εισηγητές",
      "description": "Άλλοι εισηγητές",
      "type": "Text",
      "nullable": true,
      "size": 510
    },
    {
      "name": "type",
      "title": "Τύπος εργασίας",
      "description": "Τύπος εργασίας",
      "type": "ThesisType",
      "nullable": true,
      "mapping": {
        "parentModel": "ThesisType",
        "childModel": "Thesis",
        "parentField": "identifier",
        "childField": "type",
        "associationType": "association"
      }
    },
    {
      "name": "status",
      "title": "Κατάσταση",
      "description": "Κατάσταση εργασίας",
      "type": "ThesisStatus",
      "nullable": false,
      "mapping": {
        "parentModel": "ThesisStatus",
        "childModel": "Thesis",
        "parentField": "identifier",
        "childField": "status",
        "associationType": "association"
      }
    },
    {
      "name": "grade",
      "title": "Βαθμός",
      "description": "Βαθμός εργασίας",
      "type": "Number"
    },
    {
      "name": "units",
      "title": "Διδακτικές μονάδες",
      "description": "Διδακτικές μονάδες",
      "type": "Number"
    },
    {
      "name": "gradeScale",
      "title": "Κλίμακα βαθμολογίας",
      "description": "Η πιο διαδεδομένη βαθμολογική κλίμακα είναι η δεκαδική (από 0 έως 10 με βάση το 5), ωστόσο κάποια χρησιμοποιούν και άλλες βαθμολογικές κλίμακες (πχ. Λατινικά γράμματα, Επιτυχώς/Ανεπιτυχώς, δεκαδική από 0 έως 10 με βάση το 6 κ.α.) ",
      "type": "GradeScale"
    },
    {
      "name": "ects",
      "title": "ects",
      "description": "Μονάδες ECTS",
      "type": "Number"
    },
    {
      "name": "examDate",
      "title": "Ημερομηνία εξέτασης",
      "description": "Η ημερομηνία διεξαγωγής της εξέτασης της εργασίας",
      "type": "DateTime"
    },
    {
      "name": "dateModified",
      "title": "Ημερομηνία τροποποίησης",
      "description": "Ημερομηνία τροποποίησης",
      "type": "DateTime",
      "nullable": false,
      "size": 8
    },
    {
      "name": "students",
      "title": "Students",
      "description": "Thesis students",
      "type": "StudentThesis",
      "many": true,
      "mapping": {
        "parentModel": "Thesis",
        "childModel": "StudentThesis",
        "parentField": "id",
        "childField": "thesis",
        "cascade": "null",
        "associationType": "association"
      }
    }
  ],
  "privileges": [
    {
      "mask": 15,
      "type": "global"
    },
    {
      "mask": 1,
      "type": "self",
      "filter": "instructor eq instructor()"
    }
  ]
}